Electronics/Workshop-5/simulation/qsim/workshop5.msim.vcd
$comment
	File created using the following command:
		vcd file workshop5.msim.vcd -direction
$end
$date
	Wed Mar 20 15:13:30 2024
$end
$version
	ModelSim Version 2020.1
$end
$timescale
	1ps
$end

$scope module fulladder_vlg_vec_tst $end
$var reg 1 ! A $end
$var reg 1 " B $end
$var reg 1 # C_i $end
$var wire 1 $ C $end
$var wire 1 % S $end

$scope module i1 $end
$var wire 1 & gnd $end
$var wire 1 ' vcc $end
$var wire 1 ( unknown $end
$var tri1 1 ) devclrn $end
$var tri1 1 * devpor $end
$var tri1 1 + devoe $end
$var wire 1 , S~output_o $end
$var wire 1 - C~output_o $end
$var wire 1 . B~input_o $end
$var wire 1 / A~input_o $end
$var wire 1 0 C_i~input_o $end
$var wire 1 1 inst1|XOR~0_combout $end
$var wire 1 2 inst2~0_combout $end
$upscope $end
$upscope $end
$enddefinitions $end
#0
$dumpvars
0!
0"
0#
0$
0%
0&
1'
x(
1)
1*
1+
0,
0-
0.
0/
00
01
02
$end
#10000
1#
10
11
1,
1%
#20000
1"
0#
1.
00
#30000
1#
10
12
01
0,
1-
1$
0%
#40000
1!
0"
0#
1/
0.
00
02
11
1,
0-
0$
1%
#50000
1#
10
12
01
0,
1-
1$
0%
#60000
1"
0#
1.
00
#70000
1#
10
11
1,
1%
